


ARM Macro Assembler    Page 1 


    1 00000000         ;******************** (C) COPYRIGHT 2016 STMicroelectron
                       ics ********************
    2 00000000         ;* File Name          : startup_stm32f091xc.s
    3 00000000         ;* Author             : MCD Application Team
    4 00000000         ;* Description        : STM32F091xc/STM32F098xc devices 
                       vector table for MDK-ARM toolchain.
    5 00000000         ;*                      This module performs:
    6 00000000         ;*                      - Set the initial SP
    7 00000000         ;*                      - Set the initial PC == Reset_Ha
                       ndler
    8 00000000         ;*                      - Set the vector table entries w
                       ith the exceptions ISR address
    9 00000000         ;*                      - Branches to __main in the C li
                       brary (which eventually
   10 00000000         ;*                        calls main()).
   11 00000000         ;*                      After Reset the CortexM0 process
                       or is in Thread mode,
   12 00000000         ;*                      priority is Privileged, and the 
                       Stack is set to Main.
   13 00000000         ;* <<< Use Configuration Wizard in Context Menu >>>
   14 00000000         ;*******************************************************
                       ************************
   15 00000000         ;*
   16 00000000         ;* Redistribution and use in source and binary forms, wi
                       th or without modification,
   17 00000000         ;* are permitted provided that the following conditions 
                       are met:
   18 00000000         ;*   1. Redistributions of source code must retain the a
                       bove copyright notice,
   19 00000000         ;*      this list of conditions and the following discla
                       imer.
   20 00000000         ;*   2. Redistributions in binary form must reproduce th
                       e above copyright notice,
   21 00000000         ;*      this list of conditions and the following discla
                       imer in the documentation
   22 00000000         ;*      and/or other materials provided with the distrib
                       ution.
   23 00000000         ;*   3. Neither the name of STMicroelectronics nor the n
                       ames of its contributors
   24 00000000         ;*      may be used to endorse or promote products deriv
                       ed from this software
   25 00000000         ;*      without specific prior written permission.
   26 00000000         ;*
   27 00000000         ;* THIS SOFTWARE IS PROVIDED BY THE COPYRIGHT HOLDERS AN
                       D CONTRIBUTORS "AS IS"
   28 00000000         ;* AND ANY EXPRESS OR IMPLIED WARRANTIES, INCLUDING, BUT
                        NOT LIMITED TO, THE
   29 00000000         ;* IMPLIED WARRANTIES OF MERCHANTABILITY AND FITNESS FOR
                        A PARTICULAR PURPOSE ARE
   30 00000000         ;* DISCLAIMED. IN NO EVENT SHALL THE COPYRIGHT HOLDER OR
                        CONTRIBUTORS BE LIABLE
   31 00000000         ;* FOR ANY DIRECT, INDIRECT, INCIDENTAL, SPECIAL, EXEMPL
                       ARY, OR CONSEQUENTIAL
   32 00000000         ;* DAMAGES (INCLUDING, BUT NOT LIMITED TO, PROCUREMENT O
                       F SUBSTITUTE GOODS OR
   33 00000000         ;* SERVICES; LOSS OF USE, DATA, OR PROFITS; OR BUSINESS 
                       INTERRUPTION) HOWEVER
   34 00000000         ;* CAUSED AND ON ANY THEORY OF LIABILITY, WHETHER IN CON
                       TRACT, STRICT LIABILITY,



ARM Macro Assembler    Page 2 


   35 00000000         ;* OR TORT (INCLUDING NEGLIGENCE OR OTHERWISE) ARISING I
                       N ANY WAY OUT OF THE USE
   36 00000000         ;* OF THIS SOFTWARE, EVEN IF ADVISED OF THE POSSIBILITY 
                       OF SUCH DAMAGE.
   37 00000000         ;
   38 00000000         ;*******************************************************
                       ************************
   39 00000000         
   40 00000000         ; Amount of memory (in bytes) allocated for Stack
   41 00000000         ; Tailor this value to your application needs
   42 00000000         ; <h> Stack Configuration
   43 00000000         ;   <o> Stack Size (in Bytes) <0x0-0xFFFFFFFF:8>
   44 00000000         ; </h>
   45 00000000         
   46 00000000 00000400 
                       Stack_Size
                               EQU              0x00000400
   47 00000000         
   48 00000000                 AREA             STACK, NOINIT, READWRITE, ALIGN
=3
   49 00000000         Stack_Mem
                               SPACE            Stack_Size
   50 00000400         __initial_sp
   51 00000400         
   52 00000400         
   53 00000400         ; <h> Heap Configuration
   54 00000400         ;   <o>  Heap Size (in Bytes) <0x0-0xFFFFFFFF:8>
   55 00000400         ; </h>
   56 00000400         
   57 00000400 00000200 
                       Heap_Size
                               EQU              0x00000200
   58 00000400         
   59 00000400                 AREA             HEAP, NOINIT, READWRITE, ALIGN=
3
   60 00000000         __heap_base
   61 00000000         Heap_Mem
                               SPACE            Heap_Size
   62 00000200         __heap_limit
   63 00000200         
   64 00000200                 PRESERVE8
   65 00000200                 THUMB
   66 00000200         
   67 00000200         
   68 00000200         ; Vector Table Mapped to Address 0 at Reset
   69 00000200                 AREA             RESET, DATA, READONLY
   70 00000000                 EXPORT           __Vectors
   71 00000000                 EXPORT           __Vectors_End
   72 00000000                 EXPORT           __Vectors_Size
   73 00000000         
   74 00000000 00000000 
                       __Vectors
                               DCD              __initial_sp ; Top of Stack
   75 00000004 00000000        DCD              Reset_Handler ; Reset Handler
   76 00000008 00000000        DCD              NMI_Handler ; NMI Handler
   77 0000000C 00000000        DCD              HardFault_Handler ; Hard Fault 
                                                            Handler
   78 00000010 00000000        DCD              0           ; Reserved
   79 00000014 00000000        DCD              0           ; Reserved



ARM Macro Assembler    Page 3 


   80 00000018 00000000        DCD              0           ; Reserved
   81 0000001C 00000000        DCD              0           ; Reserved
   82 00000020 00000000        DCD              0           ; Reserved
   83 00000024 00000000        DCD              0           ; Reserved
   84 00000028 00000000        DCD              0           ; Reserved
   85 0000002C 00000000        DCD              SVC_Handler ; SVCall Handler
   86 00000030 00000000        DCD              0           ; Reserved
   87 00000034 00000000        DCD              0           ; Reserved
   88 00000038 00000000        DCD              PendSV_Handler ; PendSV Handler
                                                            
   89 0000003C 00000000        DCD              SysTick_Handler 
                                                            ; SysTick Handler
   90 00000040         
   91 00000040         ; External Interrupts
   92 00000040 00000000        DCD              WWDG_IRQHandler 
                                                            ; Window Watchdog
   93 00000044 00000000        DCD              PVD_VDDIO2_IRQHandler ; PVD thr
                                                            ough EXTI Line dete
                                                            ct
   94 00000048 00000000        DCD              RTC_IRQHandler ; RTC through EX
                                                            TI Line
   95 0000004C 00000000        DCD              FLASH_IRQHandler ; FLASH
   96 00000050 00000000        DCD              RCC_CRS_IRQHandler 
                                                            ; RCC and CRS
   97 00000054 00000000        DCD              EXTI0_1_IRQHandler 
                                                            ; EXTI Line 0 and 1
                                                            
   98 00000058 00000000        DCD              EXTI2_3_IRQHandler 
                                                            ; EXTI Line 2 and 3
                                                            
   99 0000005C 00000000        DCD              EXTI4_15_IRQHandler 
                                                            ; EXTI Line 4 to 15
                                                            
  100 00000060 00000000        DCD              TSC_IRQHandler ; TS
  101 00000064 00000000        DCD              DMA1_Ch1_IRQHandler 
                                                            ; DMA1 Channel 1
  102 00000068 00000000        DCD              DMA1_Ch2_3_DMA2_Ch1_2_IRQHandle
r 
                                                            ; DMA1 Channel 2 an
                                                            d 3 & DMA2 Channel 
                                                            1 and 2
  103 0000006C 00000000        DCD              DMA1_Ch4_7_DMA2_Ch3_5_IRQHandle
r 
                                                            ; DMA1 Channel 4 to
                                                             7 & DMA2 Channel 3
                                                             to 5 
  104 00000070 00000000        DCD              ADC1_COMP_IRQHandler ; ADC1, CO
                                                            MP1 and COMP2 
  105 00000074 00000000        DCD              TIM1_BRK_UP_TRG_COM_IRQHandler 
                                                            ; TIM1 Break, Updat
                                                            e, Trigger and Comm
                                                            utation
  106 00000078 00000000        DCD              TIM1_CC_IRQHandler ; TIM1 Captu
                                                            re Compare
  107 0000007C 00000000        DCD              TIM2_IRQHandler ; TIM2
  108 00000080 00000000        DCD              TIM3_IRQHandler ; TIM3
  109 00000084 00000000        DCD              TIM6_DAC_IRQHandler 
                                                            ; TIM6 and DAC
  110 00000088 00000000        DCD              TIM7_IRQHandler ; TIM7



ARM Macro Assembler    Page 4 


  111 0000008C 00000000        DCD              TIM14_IRQHandler ; TIM14
  112 00000090 00000000        DCD              TIM15_IRQHandler ; TIM15
  113 00000094 00000000        DCD              TIM16_IRQHandler ; TIM16
  114 00000098 00000000        DCD              TIM17_IRQHandler ; TIM17
  115 0000009C 00000000        DCD              I2C1_IRQHandler ; I2C1
  116 000000A0 00000000        DCD              I2C2_IRQHandler ; I2C2
  117 000000A4 00000000        DCD              SPI1_IRQHandler ; SPI1
  118 000000A8 00000000        DCD              SPI2_IRQHandler ; SPI2
  119 000000AC 00000000        DCD              USART1_IRQHandler ; USART1
  120 000000B0 00000000        DCD              USART2_IRQHandler ; USART2
  121 000000B4 00000000        DCD              USART3_8_IRQHandler ; USART3, U
                                                            SART4, USART5, USAR
                                                            T6, USART7, USART8
  122 000000B8 00000000        DCD              CEC_CAN_IRQHandler 
                                                            ; CEC and CAN
  123 000000BC         
  124 000000BC         __Vectors_End
  125 000000BC         
  126 000000BC 000000BC 
                       __Vectors_Size
                               EQU              __Vectors_End - __Vectors
  127 000000BC         
  128 000000BC                 AREA             |.text|, CODE, READONLY
  129 00000000         
  130 00000000         ; Reset handler routine
  131 00000000         Reset_Handler
                               PROC
  132 00000000                 EXPORT           Reset_Handler                 [
WEAK]
  133 00000000                 IMPORT           __main
  134 00000000                 IMPORT           SystemInit
  135 00000000 4807            LDR              R0, =SystemInit
  136 00000002 4780            BLX              R0
  137 00000004 4807            LDR              R0, =__main
  138 00000006 4700            BX               R0
  139 00000008                 ENDP
  140 00000008         
  141 00000008         ; Dummy Exception Handlers (infinite loops which can be 
                       modified)
  142 00000008         
  143 00000008         NMI_Handler
                               PROC
  144 00000008                 EXPORT           NMI_Handler                    
[WEAK]
  145 00000008 E7FE            B                .
  146 0000000A                 ENDP
  148 0000000A         HardFault_Handler
                               PROC
  149 0000000A                 EXPORT           HardFault_Handler              
[WEAK]
  150 0000000A E7FE            B                .
  151 0000000C                 ENDP
  152 0000000C         SVC_Handler
                               PROC
  153 0000000C                 EXPORT           SVC_Handler                    
[WEAK]
  154 0000000C E7FE            B                .
  155 0000000E                 ENDP
  156 0000000E         PendSV_Handler



ARM Macro Assembler    Page 5 


                               PROC
  157 0000000E                 EXPORT           PendSV_Handler                 
[WEAK]
  158 0000000E E7FE            B                .
  159 00000010                 ENDP
  160 00000010         SysTick_Handler
                               PROC
  161 00000010                 EXPORT           SysTick_Handler                
[WEAK]
  162 00000010 E7FE            B                .
  163 00000012                 ENDP
  164 00000012         
  165 00000012         Default_Handler
                               PROC
  166 00000012         
  167 00000012                 EXPORT           WWDG_IRQHandler                
[WEAK]
  168 00000012                 EXPORT           PVD_VDDIO2_IRQHandler          
[WEAK]
  169 00000012                 EXPORT           RTC_IRQHandler                 
[WEAK]
  170 00000012                 EXPORT           FLASH_IRQHandler               
[WEAK]
  171 00000012                 EXPORT           RCC_CRS_IRQHandler             
[WEAK]
  172 00000012                 EXPORT           EXTI0_1_IRQHandler             
[WEAK]
  173 00000012                 EXPORT           EXTI2_3_IRQHandler             
[WEAK]
  174 00000012                 EXPORT           EXTI4_15_IRQHandler            
[WEAK]
  175 00000012                 EXPORT           TSC_IRQHandler                 
[WEAK]
  176 00000012                 EXPORT           DMA1_Ch1_IRQHandler            
[WEAK]
  177 00000012                 EXPORT           DMA1_Ch2_3_DMA2_Ch1_2_IRQHandle
r [WEAK]
  178 00000012                 EXPORT           DMA1_Ch4_7_DMA2_Ch3_5_IRQHandle
r [WEAK]
  179 00000012                 EXPORT           ADC1_COMP_IRQHandler           
[WEAK]
  180 00000012                 EXPORT           TIM1_BRK_UP_TRG_COM_IRQHandler 
[WEAK]
  181 00000012                 EXPORT           TIM1_CC_IRQHandler             
[WEAK]
  182 00000012                 EXPORT           TIM2_IRQHandler                
[WEAK]
  183 00000012                 EXPORT           TIM3_IRQHandler                
[WEAK]
  184 00000012                 EXPORT           TIM6_DAC_IRQHandler            
[WEAK]
  185 00000012                 EXPORT           TIM7_IRQHandler                
[WEAK]
  186 00000012                 EXPORT           TIM14_IRQHandler               
[WEAK]
  187 00000012                 EXPORT           TIM15_IRQHandler               
[WEAK]
  188 00000012                 EXPORT           TIM16_IRQHandler               
[WEAK]



ARM Macro Assembler    Page 6 


  189 00000012                 EXPORT           TIM17_IRQHandler               
[WEAK]
  190 00000012                 EXPORT           I2C1_IRQHandler                
[WEAK]
  191 00000012                 EXPORT           I2C2_IRQHandler                
[WEAK]
  192 00000012                 EXPORT           SPI1_IRQHandler                
[WEAK]
  193 00000012                 EXPORT           SPI2_IRQHandler                
[WEAK]
  194 00000012                 EXPORT           USART1_IRQHandler              
[WEAK]
  195 00000012                 EXPORT           USART2_IRQHandler              
[WEAK]
  196 00000012                 EXPORT           USART3_8_IRQHandler            
[WEAK]
  197 00000012                 EXPORT           CEC_CAN_IRQHandler             
[WEAK]
  198 00000012         
  199 00000012         
  200 00000012         WWDG_IRQHandler
  201 00000012         PVD_VDDIO2_IRQHandler
  202 00000012         RTC_IRQHandler
  203 00000012         FLASH_IRQHandler
  204 00000012         RCC_CRS_IRQHandler
  205 00000012         EXTI0_1_IRQHandler
  206 00000012         EXTI2_3_IRQHandler
  207 00000012         EXTI4_15_IRQHandler
  208 00000012         TSC_IRQHandler
  209 00000012         DMA1_Ch1_IRQHandler
  210 00000012         DMA1_Ch2_3_DMA2_Ch1_2_IRQHandler
  211 00000012         DMA1_Ch4_7_DMA2_Ch3_5_IRQHandler
  212 00000012         ADC1_COMP_IRQHandler
  213 00000012         TIM1_BRK_UP_TRG_COM_IRQHandler
  214 00000012         TIM1_CC_IRQHandler
  215 00000012         TIM2_IRQHandler
  216 00000012         TIM3_IRQHandler
  217 00000012         TIM6_DAC_IRQHandler
  218 00000012         TIM7_IRQHandler
  219 00000012         TIM14_IRQHandler
  220 00000012         TIM15_IRQHandler
  221 00000012         TIM16_IRQHandler
  222 00000012         TIM17_IRQHandler
  223 00000012         I2C1_IRQHandler
  224 00000012         I2C2_IRQHandler
  225 00000012         SPI1_IRQHandler
  226 00000012         SPI2_IRQHandler
  227 00000012         USART1_IRQHandler
  228 00000012         USART2_IRQHandler
  229 00000012         USART3_8_IRQHandler
  230 00000012         CEC_CAN_IRQHandler
  231 00000012         
  232 00000012 E7FE            B                .
  233 00000014         
  234 00000014                 ENDP
  235 00000014         
  236 00000014                 ALIGN
  237 00000014         
  238 00000014         ;*******************************************************



ARM Macro Assembler    Page 7 


                       ************************
  239 00000014         ; User Stack and Heap initialization
  240 00000014         ;*******************************************************
                       ************************
  241 00000014                 IF               :DEF:__MICROLIB
  248 00000014         
  249 00000014                 IMPORT           __use_two_region_memory
  250 00000014                 EXPORT           __user_initial_stackheap
  251 00000014         
  252 00000014         __user_initial_stackheap
  253 00000014         
  254 00000014 4804            LDR              R0, =  Heap_Mem
  255 00000016 4905            LDR              R1, =(Stack_Mem + Stack_Size)
  256 00000018 4A05            LDR              R2, = (Heap_Mem +  Heap_Size)
  257 0000001A 4B06            LDR              R3, = Stack_Mem
  258 0000001C 4770            BX               LR
  259 0000001E         
  260 0000001E 00 00           ALIGN
  261 00000020         
  262 00000020                 ENDIF
  263 00000020         
  264 00000020                 END
              00000000 
              00000000 
              00000000 
              00000400 
              00000200 
              00000000 
Command Line: --debug --xref --diag_suppress=9931 --cpu=Cortex-M0 --apcs=interw
ork --depend=.\objects\startup_stm32f091xc.d -o.\objects\startup_stm32f091xc.o 
-I.\RTE\_Target_1 -IC:\Keil_v5\ARM\PACK\ARM\CMSIS\5.5.1\CMSIS\Core\Include -IC:
\Keil_v5\ARM\PACK\Keil\STM32F0xx_DFP\2.0.0\Drivers\CMSIS\Device\ST\STM32F0xx\In
clude --predefine="__EVAL SETA 1" --predefine="__UVISION_VERSION SETA 525" --pr
edefine="_RTE_ SETA 1" --predefine="STM32F091xC SETA 1" --list=.\listings\start
up_stm32f091xc.lst RTE\Device\STM32F091CCUx\startup_stm32f091xc.s



ARM Macro Assembler    Page 1 Alphabetic symbol ordering
Relocatable symbols

STACK 00000000

Symbol: STACK
   Definitions
      At line 48 in file RTE\Device\STM32F091CCUx\startup_stm32f091xc.s
   Uses
      None
Comment: STACK unused
Stack_Mem 00000000

Symbol: Stack_Mem
   Definitions
      At line 49 in file RTE\Device\STM32F091CCUx\startup_stm32f091xc.s
   Uses
      At line 255 in file RTE\Device\STM32F091CCUx\startup_stm32f091xc.s
      At line 257 in file RTE\Device\STM32F091CCUx\startup_stm32f091xc.s

__initial_sp 00000400

Symbol: __initial_sp
   Definitions
      At line 50 in file RTE\Device\STM32F091CCUx\startup_stm32f091xc.s
   Uses
      At line 74 in file RTE\Device\STM32F091CCUx\startup_stm32f091xc.s
Comment: __initial_sp used once
3 symbols



ARM Macro Assembler    Page 1 Alphabetic symbol ordering
Relocatable symbols

HEAP 00000000

Symbol: HEAP
   Definitions
      At line 59 in file RTE\Device\STM32F091CCUx\startup_stm32f091xc.s
   Uses
      None
Comment: HEAP unused
Heap_Mem 00000000

Symbol: Heap_Mem
   Definitions
      At line 61 in file RTE\Device\STM32F091CCUx\startup_stm32f091xc.s
   Uses
      At line 254 in file RTE\Device\STM32F091CCUx\startup_stm32f091xc.s
      At line 256 in file RTE\Device\STM32F091CCUx\startup_stm32f091xc.s

__heap_base 00000000

Symbol: __heap_base
   Definitions
      At line 60 in file RTE\Device\STM32F091CCUx\startup_stm32f091xc.s
   Uses
      None
Comment: __heap_base unused
__heap_limit 00000200

Symbol: __heap_limit
   Definitions
      At line 62 in file RTE\Device\STM32F091CCUx\startup_stm32f091xc.s
   Uses
      None
Comment: __heap_limit unused
4 symbols



ARM Macro Assembler    Page 1 Alphabetic symbol ordering
Relocatable symbols

RESET 00000000

Symbol: RESET
   Definitions
      At line 69 in file RTE\Device\STM32F091CCUx\startup_stm32f091xc.s
   Uses
      None
Comment: RESET unused
__Vectors 00000000

Symbol: __Vectors
   Definitions
      At line 74 in file RTE\Device\STM32F091CCUx\startup_stm32f091xc.s
   Uses
      At line 70 in file RTE\Device\STM32F091CCUx\startup_stm32f091xc.s
      At line 126 in file RTE\Device\STM32F091CCUx\startup_stm32f091xc.s

__Vectors_End 000000BC

Symbol: __Vectors_End
   Definitions
      At line 124 in file RTE\Device\STM32F091CCUx\startup_stm32f091xc.s
   Uses
      At line 71 in file RTE\Device\STM32F091CCUx\startup_stm32f091xc.s
      At line 126 in file RTE\Device\STM32F091CCUx\startup_stm32f091xc.s

3 symbols



ARM Macro Assembler    Page 1 Alphabetic symbol ordering
Relocatable symbols

.text 00000000

Symbol: .text
   Definitions
      At line 128 in file RTE\Device\STM32F091CCUx\startup_stm32f091xc.s
   Uses
      None
Comment: .text unused
ADC1_COMP_IRQHandler 00000012

Symbol: ADC1_COMP_IRQHandler
   Definitions
      At line 212 in file RTE\Device\STM32F091CCUx\startup_stm32f091xc.s
   Uses
      At line 104 in file RTE\Device\STM32F091CCUx\startup_stm32f091xc.s
      At line 179 in file RTE\Device\STM32F091CCUx\startup_stm32f091xc.s

CEC_CAN_IRQHandler 00000012

Symbol: CEC_CAN_IRQHandler
   Definitions
      At line 230 in file RTE\Device\STM32F091CCUx\startup_stm32f091xc.s
   Uses
      At line 122 in file RTE\Device\STM32F091CCUx\startup_stm32f091xc.s
      At line 197 in file RTE\Device\STM32F091CCUx\startup_stm32f091xc.s

DMA1_Ch1_IRQHandler 00000012

Symbol: DMA1_Ch1_IRQHandler
   Definitions
      At line 209 in file RTE\Device\STM32F091CCUx\startup_stm32f091xc.s
   Uses
      At line 101 in file RTE\Device\STM32F091CCUx\startup_stm32f091xc.s
      At line 176 in file RTE\Device\STM32F091CCUx\startup_stm32f091xc.s

DMA1_Ch2_3_DMA2_Ch1_2_IRQHandler 00000012

Symbol: DMA1_Ch2_3_DMA2_Ch1_2_IRQHandler
   Definitions
      At line 210 in file RTE\Device\STM32F091CCUx\startup_stm32f091xc.s
   Uses
      At line 102 in file RTE\Device\STM32F091CCUx\startup_stm32f091xc.s
      At line 177 in file RTE\Device\STM32F091CCUx\startup_stm32f091xc.s

DMA1_Ch4_7_DMA2_Ch3_5_IRQHandler 00000012

Symbol: DMA1_Ch4_7_DMA2_Ch3_5_IRQHandler
   Definitions
      At line 211 in file RTE\Device\STM32F091CCUx\startup_stm32f091xc.s
   Uses
      At line 103 in file RTE\Device\STM32F091CCUx\startup_stm32f091xc.s
      At line 178 in file RTE\Device\STM32F091CCUx\startup_stm32f091xc.s

Default_Handler 00000012

Symbol: Default_Handler
   Definitions
      At line 165 in file RTE\Device\STM32F091CCUx\startup_stm32f091xc.s
   Uses



ARM Macro Assembler    Page 2 Alphabetic symbol ordering
Relocatable symbols

      None
Comment: Default_Handler unused
EXTI0_1_IRQHandler 00000012

Symbol: EXTI0_1_IRQHandler
   Definitions
      At line 205 in file RTE\Device\STM32F091CCUx\startup_stm32f091xc.s
   Uses
      At line 97 in file RTE\Device\STM32F091CCUx\startup_stm32f091xc.s
      At line 172 in file RTE\Device\STM32F091CCUx\startup_stm32f091xc.s

EXTI2_3_IRQHandler 00000012

Symbol: EXTI2_3_IRQHandler
   Definitions
      At line 206 in file RTE\Device\STM32F091CCUx\startup_stm32f091xc.s
   Uses
      At line 98 in file RTE\Device\STM32F091CCUx\startup_stm32f091xc.s
      At line 173 in file RTE\Device\STM32F091CCUx\startup_stm32f091xc.s

EXTI4_15_IRQHandler 00000012

Symbol: EXTI4_15_IRQHandler
   Definitions
      At line 207 in file RTE\Device\STM32F091CCUx\startup_stm32f091xc.s
   Uses
      At line 99 in file RTE\Device\STM32F091CCUx\startup_stm32f091xc.s
      At line 174 in file RTE\Device\STM32F091CCUx\startup_stm32f091xc.s

FLASH_IRQHandler 00000012

Symbol: FLASH_IRQHandler
   Definitions
      At line 203 in file RTE\Device\STM32F091CCUx\startup_stm32f091xc.s
   Uses
      At line 95 in file RTE\Device\STM32F091CCUx\startup_stm32f091xc.s
      At line 170 in file RTE\Device\STM32F091CCUx\startup_stm32f091xc.s

HardFault_Handler 0000000A

Symbol: HardFault_Handler
   Definitions
      At line 148 in file RTE\Device\STM32F091CCUx\startup_stm32f091xc.s
   Uses
      At line 77 in file RTE\Device\STM32F091CCUx\startup_stm32f091xc.s
      At line 149 in file RTE\Device\STM32F091CCUx\startup_stm32f091xc.s

I2C1_IRQHandler 00000012

Symbol: I2C1_IRQHandler
   Definitions
      At line 223 in file RTE\Device\STM32F091CCUx\startup_stm32f091xc.s
   Uses
      At line 115 in file RTE\Device\STM32F091CCUx\startup_stm32f091xc.s
      At line 190 in file RTE\Device\STM32F091CCUx\startup_stm32f091xc.s

I2C2_IRQHandler 00000012

Symbol: I2C2_IRQHandler



ARM Macro Assembler    Page 3 Alphabetic symbol ordering
Relocatable symbols

   Definitions
      At line 224 in file RTE\Device\STM32F091CCUx\startup_stm32f091xc.s
   Uses
      At line 116 in file RTE\Device\STM32F091CCUx\startup_stm32f091xc.s
      At line 191 in file RTE\Device\STM32F091CCUx\startup_stm32f091xc.s

NMI_Handler 00000008

Symbol: NMI_Handler
   Definitions
      At line 143 in file RTE\Device\STM32F091CCUx\startup_stm32f091xc.s
   Uses
      At line 76 in file RTE\Device\STM32F091CCUx\startup_stm32f091xc.s
      At line 144 in file RTE\Device\STM32F091CCUx\startup_stm32f091xc.s

PVD_VDDIO2_IRQHandler 00000012

Symbol: PVD_VDDIO2_IRQHandler
   Definitions
      At line 201 in file RTE\Device\STM32F091CCUx\startup_stm32f091xc.s
   Uses
      At line 93 in file RTE\Device\STM32F091CCUx\startup_stm32f091xc.s
      At line 168 in file RTE\Device\STM32F091CCUx\startup_stm32f091xc.s

PendSV_Handler 0000000E

Symbol: PendSV_Handler
   Definitions
      At line 156 in file RTE\Device\STM32F091CCUx\startup_stm32f091xc.s
   Uses
      At line 88 in file RTE\Device\STM32F091CCUx\startup_stm32f091xc.s
      At line 157 in file RTE\Device\STM32F091CCUx\startup_stm32f091xc.s

RCC_CRS_IRQHandler 00000012

Symbol: RCC_CRS_IRQHandler
   Definitions
      At line 204 in file RTE\Device\STM32F091CCUx\startup_stm32f091xc.s
   Uses
      At line 96 in file RTE\Device\STM32F091CCUx\startup_stm32f091xc.s
      At line 171 in file RTE\Device\STM32F091CCUx\startup_stm32f091xc.s

RTC_IRQHandler 00000012

Symbol: RTC_IRQHandler
   Definitions
      At line 202 in file RTE\Device\STM32F091CCUx\startup_stm32f091xc.s
   Uses
      At line 94 in file RTE\Device\STM32F091CCUx\startup_stm32f091xc.s
      At line 169 in file RTE\Device\STM32F091CCUx\startup_stm32f091xc.s

Reset_Handler 00000000

Symbol: Reset_Handler
   Definitions
      At line 131 in file RTE\Device\STM32F091CCUx\startup_stm32f091xc.s
   Uses
      At line 75 in file RTE\Device\STM32F091CCUx\startup_stm32f091xc.s
      At line 132 in file RTE\Device\STM32F091CCUx\startup_stm32f091xc.s



ARM Macro Assembler    Page 4 Alphabetic symbol ordering
Relocatable symbols


SPI1_IRQHandler 00000012

Symbol: SPI1_IRQHandler
   Definitions
      At line 225 in file RTE\Device\STM32F091CCUx\startup_stm32f091xc.s
   Uses
      At line 117 in file RTE\Device\STM32F091CCUx\startup_stm32f091xc.s
      At line 192 in file RTE\Device\STM32F091CCUx\startup_stm32f091xc.s

SPI2_IRQHandler 00000012

Symbol: SPI2_IRQHandler
   Definitions
      At line 226 in file RTE\Device\STM32F091CCUx\startup_stm32f091xc.s
   Uses
      At line 118 in file RTE\Device\STM32F091CCUx\startup_stm32f091xc.s
      At line 193 in file RTE\Device\STM32F091CCUx\startup_stm32f091xc.s

SVC_Handler 0000000C

Symbol: SVC_Handler
   Definitions
      At line 152 in file RTE\Device\STM32F091CCUx\startup_stm32f091xc.s
   Uses
      At line 85 in file RTE\Device\STM32F091CCUx\startup_stm32f091xc.s
      At line 153 in file RTE\Device\STM32F091CCUx\startup_stm32f091xc.s

SysTick_Handler 00000010

Symbol: SysTick_Handler
   Definitions
      At line 160 in file RTE\Device\STM32F091CCUx\startup_stm32f091xc.s
   Uses
      At line 89 in file RTE\Device\STM32F091CCUx\startup_stm32f091xc.s
      At line 161 in file RTE\Device\STM32F091CCUx\startup_stm32f091xc.s

TIM14_IRQHandler 00000012

Symbol: TIM14_IRQHandler
   Definitions
      At line 219 in file RTE\Device\STM32F091CCUx\startup_stm32f091xc.s
   Uses
      At line 111 in file RTE\Device\STM32F091CCUx\startup_stm32f091xc.s
      At line 186 in file RTE\Device\STM32F091CCUx\startup_stm32f091xc.s

TIM15_IRQHandler 00000012

Symbol: TIM15_IRQHandler
   Definitions
      At line 220 in file RTE\Device\STM32F091CCUx\startup_stm32f091xc.s
   Uses
      At line 112 in file RTE\Device\STM32F091CCUx\startup_stm32f091xc.s
      At line 187 in file RTE\Device\STM32F091CCUx\startup_stm32f091xc.s

TIM16_IRQHandler 00000012

Symbol: TIM16_IRQHandler
   Definitions



ARM Macro Assembler    Page 5 Alphabetic symbol ordering
Relocatable symbols

      At line 221 in file RTE\Device\STM32F091CCUx\startup_stm32f091xc.s
   Uses
      At line 113 in file RTE\Device\STM32F091CCUx\startup_stm32f091xc.s
      At line 188 in file RTE\Device\STM32F091CCUx\startup_stm32f091xc.s

TIM17_IRQHandler 00000012

Symbol: TIM17_IRQHandler
   Definitions
      At line 222 in file RTE\Device\STM32F091CCUx\startup_stm32f091xc.s
   Uses
      At line 114 in file RTE\Device\STM32F091CCUx\startup_stm32f091xc.s
      At line 189 in file RTE\Device\STM32F091CCUx\startup_stm32f091xc.s

TIM1_BRK_UP_TRG_COM_IRQHandler 00000012

Symbol: TIM1_BRK_UP_TRG_COM_IRQHandler
   Definitions
      At line 213 in file RTE\Device\STM32F091CCUx\startup_stm32f091xc.s
   Uses
      At line 105 in file RTE\Device\STM32F091CCUx\startup_stm32f091xc.s
      At line 180 in file RTE\Device\STM32F091CCUx\startup_stm32f091xc.s

TIM1_CC_IRQHandler 00000012

Symbol: TIM1_CC_IRQHandler
   Definitions
      At line 214 in file RTE\Device\STM32F091CCUx\startup_stm32f091xc.s
   Uses
      At line 106 in file RTE\Device\STM32F091CCUx\startup_stm32f091xc.s
      At line 181 in file RTE\Device\STM32F091CCUx\startup_stm32f091xc.s

TIM2_IRQHandler 00000012

Symbol: TIM2_IRQHandler
   Definitions
      At line 215 in file RTE\Device\STM32F091CCUx\startup_stm32f091xc.s
   Uses
      At line 107 in file RTE\Device\STM32F091CCUx\startup_stm32f091xc.s
      At line 182 in file RTE\Device\STM32F091CCUx\startup_stm32f091xc.s

TIM3_IRQHandler 00000012

Symbol: TIM3_IRQHandler
   Definitions
      At line 216 in file RTE\Device\STM32F091CCUx\startup_stm32f091xc.s
   Uses
      At line 108 in file RTE\Device\STM32F091CCUx\startup_stm32f091xc.s
      At line 183 in file RTE\Device\STM32F091CCUx\startup_stm32f091xc.s

TIM6_DAC_IRQHandler 00000012

Symbol: TIM6_DAC_IRQHandler
   Definitions
      At line 217 in file RTE\Device\STM32F091CCUx\startup_stm32f091xc.s
   Uses
      At line 109 in file RTE\Device\STM32F091CCUx\startup_stm32f091xc.s
      At line 184 in file RTE\Device\STM32F091CCUx\startup_stm32f091xc.s




ARM Macro Assembler    Page 6 Alphabetic symbol ordering
Relocatable symbols

TIM7_IRQHandler 00000012

Symbol: TIM7_IRQHandler
   Definitions
      At line 218 in file RTE\Device\STM32F091CCUx\startup_stm32f091xc.s
   Uses
      At line 110 in file RTE\Device\STM32F091CCUx\startup_stm32f091xc.s
      At line 185 in file RTE\Device\STM32F091CCUx\startup_stm32f091xc.s

TSC_IRQHandler 00000012

Symbol: TSC_IRQHandler
   Definitions
      At line 208 in file RTE\Device\STM32F091CCUx\startup_stm32f091xc.s
   Uses
      At line 100 in file RTE\Device\STM32F091CCUx\startup_stm32f091xc.s
      At line 175 in file RTE\Device\STM32F091CCUx\startup_stm32f091xc.s

USART1_IRQHandler 00000012

Symbol: USART1_IRQHandler
   Definitions
      At line 227 in file RTE\Device\STM32F091CCUx\startup_stm32f091xc.s
   Uses
      At line 119 in file RTE\Device\STM32F091CCUx\startup_stm32f091xc.s
      At line 194 in file RTE\Device\STM32F091CCUx\startup_stm32f091xc.s

USART2_IRQHandler 00000012

Symbol: USART2_IRQHandler
   Definitions
      At line 228 in file RTE\Device\STM32F091CCUx\startup_stm32f091xc.s
   Uses
      At line 120 in file RTE\Device\STM32F091CCUx\startup_stm32f091xc.s
      At line 195 in file RTE\Device\STM32F091CCUx\startup_stm32f091xc.s

USART3_8_IRQHandler 00000012

Symbol: USART3_8_IRQHandler
   Definitions
      At line 229 in file RTE\Device\STM32F091CCUx\startup_stm32f091xc.s
   Uses
      At line 121 in file RTE\Device\STM32F091CCUx\startup_stm32f091xc.s
      At line 196 in file RTE\Device\STM32F091CCUx\startup_stm32f091xc.s

WWDG_IRQHandler 00000012

Symbol: WWDG_IRQHandler
   Definitions
      At line 200 in file RTE\Device\STM32F091CCUx\startup_stm32f091xc.s
   Uses
      At line 92 in file RTE\Device\STM32F091CCUx\startup_stm32f091xc.s
      At line 167 in file RTE\Device\STM32F091CCUx\startup_stm32f091xc.s

__user_initial_stackheap 00000014

Symbol: __user_initial_stackheap
   Definitions
      At line 252 in file RTE\Device\STM32F091CCUx\startup_stm32f091xc.s



ARM Macro Assembler    Page 7 Alphabetic symbol ordering
Relocatable symbols

   Uses
      At line 250 in file RTE\Device\STM32F091CCUx\startup_stm32f091xc.s
Comment: __user_initial_stackheap used once
40 symbols



ARM Macro Assembler    Page 1 Alphabetic symbol ordering
Absolute symbols

Heap_Size 00000200

Symbol: Heap_Size
   Definitions
      At line 57 in file RTE\Device\STM32F091CCUx\startup_stm32f091xc.s
   Uses
      At line 61 in file RTE\Device\STM32F091CCUx\startup_stm32f091xc.s
      At line 256 in file RTE\Device\STM32F091CCUx\startup_stm32f091xc.s

Stack_Size 00000400

Symbol: Stack_Size
   Definitions
      At line 46 in file RTE\Device\STM32F091CCUx\startup_stm32f091xc.s
   Uses
      At line 49 in file RTE\Device\STM32F091CCUx\startup_stm32f091xc.s
      At line 255 in file RTE\Device\STM32F091CCUx\startup_stm32f091xc.s

__Vectors_Size 000000BC

Symbol: __Vectors_Size
   Definitions
      At line 126 in file RTE\Device\STM32F091CCUx\startup_stm32f091xc.s
   Uses
      At line 72 in file RTE\Device\STM32F091CCUx\startup_stm32f091xc.s
Comment: __Vectors_Size used once
3 symbols



ARM Macro Assembler    Page 1 Alphabetic symbol ordering
External symbols

SystemInit 00000000

Symbol: SystemInit
   Definitions
      At line 134 in file RTE\Device\STM32F091CCUx\startup_stm32f091xc.s
   Uses
      At line 135 in file RTE\Device\STM32F091CCUx\startup_stm32f091xc.s
Comment: SystemInit used once
__main 00000000

Symbol: __main
   Definitions
      At line 133 in file RTE\Device\STM32F091CCUx\startup_stm32f091xc.s
   Uses
      At line 137 in file RTE\Device\STM32F091CCUx\startup_stm32f091xc.s
Comment: __main used once
__use_two_region_memory 00000000

Symbol: __use_two_region_memory
   Definitions
      At line 249 in file RTE\Device\STM32F091CCUx\startup_stm32f091xc.s
   Uses
      None
Comment: __use_two_region_memory unused
3 symbols
394 symbols in table
